#Command: "C:\Program Files (x86)\Microsoft Visual Studio\2017\Enterprise\VC\Tools\MSVC\14.10.25017\bin\HostX86\x86\link.exe" /ERRORREPORT:PROMPT @C:\Users\Sebastian\AppData\Local\Temp\tmpa0200db9beff4b53aa0a6004c60d79ab.rsp
^C:\USERS\SEBASTIAN\DOCUMENTS\GRAFIKA-SPRAWOZDANIE-9\ZAJECIE_9-MASTER\ZAJECIE_9\DEBUG\STDAFX.OBJ|C:\USERS\SEBASTIAN\DOCUMENTS\GRAFIKA-SPRAWOZDANIE-9\ZAJECIE_9-MASTER\ZAJECIE_9\DEBUG\ZAJECIE_9.OBJ
C:\USERS\SEBASTIAN\DOCUMENTS\GRAFIKA-SPRAWOZDANIE-9\ZAJECIE_9-MASTER\DEBUG\ZAJECIE_9.PDB
